%YAML 1.1
%TAG !u! tag:unity3d.com,2011:
--- !u!114 &11400000
MonoBehaviour:
  m_ObjectHideFlags: 0
  m_CorrespondingSourceObject: {fileID: 0}
  m_PrefabInstance: {fileID: 0}
  m_PrefabAsset: {fileID: 0}
  m_GameObject: {fileID: 0}
  m_Enabled: 1
  m_EditorHideFlags: 0
  m_Script: {fileID: 11500000, guid: d054d6e948083b0469b2ff301c0adbab, type: 3}
  m_Name: AI - Shooter@Pistols
  m_EditorClassIdentifier: 
  weaponCategories:
  - Pistol
  standing:
    weaponHandOffset:
      position: {x: 0, y: 0, z: 0}
      eulerAngles: {x: -0, y: 0, z: 0}
    weaponHintOffset:
      position: {x: 0, y: 0, z: 0}
      eulerAngles: {x: -0, y: 0, z: 0}
    supportHandOffset:
      position: {x: 0, y: 0, z: 0}
      eulerAngles: {x: -0, y: 0, z: 0}
    supportHintOffset:
      position: {x: 0, y: 0, z: 0}
      eulerAngles: {x: -0, y: 0, z: 0}
    spineOffset:
      spine: {x: 0, y: 0}
      head: {x: 0, y: 0}
  crouching:
    weaponHandOffset:
      position: {x: 0.03215019, y: -0.07184291, z: 0.018502716}
      eulerAngles: {x: 344.85883, y: 0.0027345645, z: 359.8066}
    weaponHintOffset:
      position: {x: -0.011090566, y: 0.004034291, z: 0.03829644}
      eulerAngles: {x: -0, y: 0, z: 0}
    supportHandOffset:
      position: {x: 1e-45, y: 1e-45, z: 1e-45}
      eulerAngles: {x: -1.61e-43, y: 1.61e-43, z: 1.61e-43}
    supportHintOffset:
      position: {x: -0.021812955, y: 0.010039002, z: 0.058998287}
      eulerAngles: {x: -0, y: 0, z: 0}
    spineOffset:
      spine: {x: 0, y: 0}
      head: {x: 0, y: 0}
  standingAiming:
    weaponHandOffset:
      position: {x: -0.04199387, y: -0.05326542, z: -0.03643773}
      eulerAngles: {x: -0, y: 0, z: 0}
    weaponHintOffset:
      position: {x: 0.010554971, y: 0.005492214, z: -0.027231552}
      eulerAngles: {x: -0, y: 0, z: 0}
    supportHandOffset:
      position: {x: 0, y: 0, z: 0}
      eulerAngles: {x: -0, y: 0, z: 0}
    supportHintOffset:
      position: {x: 0, y: 0, z: 0}
      eulerAngles: {x: -0, y: 0, z: 0}
    spineOffset:
      spine: {x: 0, y: 0}
      head: {x: 0, y: 0}
  crouchingAiming:
    weaponHandOffset:
      position: {x: -0.017786905, y: -0.065936156, z: -0.022031121}
      eulerAngles: {x: 359.31863, y: 1.9486152, z: 351.66208}
    weaponHintOffset:
      position: {x: 0.008417316, y: -0.013375048, z: -0.05301005}
      eulerAngles: {x: -0, y: 0, z: 0}
    supportHandOffset:
      position: {x: 1e-45, y: 1e-45, z: 1e-45}
      eulerAngles: {x: -1.61e-43, y: 1.61e-43, z: 1.61e-43}
    supportHintOffset:
      position: {x: 0.15350902, y: -0.0275288, z: -0.031550355}
      eulerAngles: {x: -0, y: 0, z: 0}
    spineOffset:
      spine: {x: 23, y: 0}
      head: {x: -26, y: 0}
